This is FFC, the FEniCS Form Compiler, version 1.6.0.
For further information, visit http://www.fenics.org/ffc/.

Compiling form Forms

Compiler stage 1: Analyzing form(s)
-----------------------------------
  
  Geometric dimension:       2
  Number of cell subdomains: 0
  Rank:                      2
  Arguments:                 '(v_0, v_1)'
  Number of coefficients:    0
  Coefficients:              '[]'
  Unique elements:           'N1curl3(?)'
  Unique sub elements:       'N1curl3(?)'
  
  Extracting monomial form representation from UFL form
  Transforming monomial form to reference element
  Reusing element from cache
  Reusing element from cache
  Reusing element from cache
  Reusing element from cache
  Reusing element from cache
  Reusing element from cache
  Reusing element from cache
  Reusing element from cache
  Reusing element from cache
  Reusing element from cache
  Reusing element from cache
  Reusing element from cache
  Reusing element from cache
  Reusing element from cache
  Reusing element from cache
  Estimated cost of tensor representation: 4
  representation:    auto --> quadrature
  Selecting quadrature degree based on total polynomial degree of integrand: 4
  quadrature_degree: auto --> 4
  quadrature_rule:   auto --> default
  
  Geometric dimension:       2
  Number of cell subdomains: 0
  Rank:                      2
  Arguments:                 '(v_0, v_1)'
  Number of coefficients:    0
  Coefficients:              '[]'
  Unique elements:           'N1curl3(?)'
  Unique sub elements:       'N1curl3(?)'
  
  Extracting monomial form representation from UFL form
  Transforming monomial form to reference element
  Reusing element from cache
  Reusing element from cache
  Reusing element from cache
  Reusing element from cache
  Reusing element from cache
  Reusing element from cache
  Estimated cost of tensor representation: 2
  representation:    auto --> tensor
  Selecting quadrature degree based on total polynomial degree of integrand: 6
  quadrature_degree: auto --> 6
  quadrature_rule:   auto --> default
  
Compiler stage 1 finished in 0.264131 seconds.

Compiler stage 2: Computing intermediate representation
-------------------------------------------------------
  Computing representation of 1 elements
  Reusing element from cache
  Reusing element from cache
  Computing representation of 1 dofmaps
  Reusing element from cache
  Computing representation of integrals
  Computing quadrature representation
  Reusing element from cache
  Reusing element from cache
  Reusing element from cache
  Reusing element from cache
  Reusing element from cache
  
  QG-utils, psi_tables:
  {6: {VectorElement('Lagrange', Domain(Cell('triangle', 2), label=None, data=None), 1, dim=2, quad_scheme=None): {None: {None: {(0, 1): array([[[ -1.00000000e+00,  -1.00000000e+00,  -1.00000000e+00,
            -1.00000000e+00,  -1.00000000e+00,  -1.00000000e+00],
          [  0.00000000e+00,   0.00000000e+00,   0.00000000e+00,
             0.00000000e+00,   0.00000000e+00,   0.00000000e+00]],
  
         [[  8.88178420e-16,   8.88178420e-16,   8.88178420e-16,
             8.88178420e-16,   8.88178420e-16,   8.88178420e-16],
          [  0.00000000e+00,   0.00000000e+00,   0.00000000e+00,
             0.00000000e+00,   0.00000000e+00,   0.00000000e+00]],
  
         [[  1.00000000e+00,   1.00000000e+00,   1.00000000e+00,
             1.00000000e+00,   1.00000000e+00,   1.00000000e+00],
          [  0.00000000e+00,   0.00000000e+00,   0.00000000e+00,
             0.00000000e+00,   0.00000000e+00,   0.00000000e+00]],
  
         [[  0.00000000e+00,   0.00000000e+00,   0.00000000e+00,
             0.00000000e+00,   0.00000000e+00,   0.00000000e+00],
          [ -1.00000000e+00,  -1.00000000e+00,  -1.00000000e+00,
            -1.00000000e+00,  -1.00000000e+00,  -1.00000000e+00]],
  
         [[  0.00000000e+00,   0.00000000e+00,   0.00000000e+00,
             0.00000000e+00,   0.00000000e+00,   0.00000000e+00],
          [  8.88178420e-16,   8.88178420e-16,   8.88178420e-16,
             8.88178420e-16,   8.88178420e-16,   8.88178420e-16]],
  
         [[  0.00000000e+00,   0.00000000e+00,   0.00000000e+00,
             0.00000000e+00,   0.00000000e+00,   0.00000000e+00],
          [  1.00000000e+00,   1.00000000e+00,   1.00000000e+00,
             1.00000000e+00,   1.00000000e+00,   1.00000000e+00]]]), (1, 0): array([[[-1., -1., -1., -1., -1., -1.],
          [ 0.,  0.,  0.,  0.,  0.,  0.]],
  
         [[ 1.,  1.,  1.,  1.,  1.,  1.],
          [ 0.,  0.,  0.,  0.,  0.,  0.]],
  
         [[ 0.,  0.,  0.,  0.,  0.,  0.],
          [ 0.,  0.,  0.,  0.,  0.,  0.]],
  
         [[ 0.,  0.,  0.,  0.,  0.,  0.],
          [-1., -1., -1., -1., -1., -1.]],
  
         [[ 0.,  0.,  0.,  0.,  0.,  0.],
          [ 1.,  1.,  1.,  1.,  1.,  1.]],
  
         [[ 0.,  0.,  0.,  0.,  0.,  0.],
          [ 0.,  0.,  0.,  0.,  0.,  0.]]]), (0, 0): array([[[ 0.09157621,  0.09157621,  0.81684757,  0.44594849,  0.44594849,
            0.10810302],
          [ 0.        ,  0.        ,  0.        ,  0.        ,  0.        ,
            0.        ]],
  
         [[ 0.81684757,  0.09157621,  0.09157621,  0.10810302,  0.44594849,
            0.44594849],
          [ 0.        ,  0.        ,  0.        ,  0.        ,  0.        ,
            0.        ]],
  
         [[ 0.09157621,  0.81684757,  0.09157621,  0.44594849,  0.10810302,
            0.44594849],
          [ 0.        ,  0.        ,  0.        ,  0.        ,  0.        ,
            0.        ]],
  
         [[ 0.        ,  0.        ,  0.        ,  0.        ,  0.        ,
            0.        ],
          [ 0.09157621,  0.09157621,  0.81684757,  0.44594849,  0.44594849,
            0.10810302]],
  
         [[ 0.        ,  0.        ,  0.        ,  0.        ,  0.        ,
            0.        ],
          [ 0.81684757,  0.09157621,  0.09157621,  0.10810302,  0.44594849,
            0.44594849]],
  
         [[ 0.        ,  0.        ,  0.        ,  0.        ,  0.        ,
            0.        ],
          [ 0.09157621,  0.81684757,  0.09157621,  0.44594849,  0.10810302,
            0.44594849]]])}}}, FiniteElement('Nedelec 1st kind H(curl)', Domain(Cell('triangle', 2), label=None, data=None), 3, quad_scheme=None): {None: {None: {(0, 1): array([[[ -2.84278478e+00,  -1.79074769e+00,  -7.30727159e-01,
             5.65452740e-01,   7.93731867e-01,  -9.57138496e-01],
          [  2.96218075e+00,   1.32835210e-01,  -4.64923234e-01,
            -1.82610576e-01,  -3.01323357e-01,   1.05463175e+00]],
  
         [[  2.60133169e+00,   5.75744296e+00,   3.69744599e-01,
            -6.71420571e-01,   1.34168093e-02,  -2.14608846e+00],
          [  5.92436150e+00,  -9.29846468e-01,   2.65670419e-01,
            -3.65221153e-01,   2.10926350e+00,  -6.02646715e-01]],
  
         [[ -6.32753871e-01,  -1.01010877e+01,  -1.15078898e+00,
             2.08901868e+00,   3.45065372e-02,  -4.27037407e-03],
          [ -2.96218075e+00,   1.46118731e+00,  -1.12909928e+00,
             1.82610576e-01,  -3.31455693e+00,   2.56124854e+00]],
  
         [[  1.85982644e+00,   4.75292844e+00,   1.38159747e+00,
            -1.60411004e+00,  -9.76342444e-01,   2.74910419e+00],
          [  2.44114232e-01,   4.25300978e+00,  -5.75730946e+00,
            -5.53748666e-01,   8.11352878e-01,   2.60100015e+00]],
  
         [[ -6.35415018e-01,  -1.16818045e+01,  -1.67148523e+00,
             2.74873518e+00,   3.51804343e-01,  -1.43784293e+00],
          [  1.08801856e-14,  -1.00103192e+01,   1.00103192e+01,
             2.45359288e-14,   1.78964727e+00,  -1.78964727e+00]],
  
         [[  1.61571221e+00,   7.13890693e+00,   4.99918662e-01,
            -1.05036138e+00,   1.48104039e-01,  -1.78769532e+00],
          [ -2.44114232e-01,   5.75730946e+00,  -4.25300978e+00,
             5.53748666e-01,  -2.60100015e+00,  -8.11352878e-01]],
  
         [[  2.32942688e+00,  -2.16896924e-02,  -1.15622750e+01,
             1.90640810e+00,  -2.56551891e+00,   3.34906347e+00],
          [  2.96218075e+00,   1.12909928e+00,  -1.46118731e+00,
            -1.82610576e-01,  -2.56124854e+00,   3.31455693e+00]],
  
         [[ -3.32302980e+00,   1.04074179e-01,   6.68728943e+00,
            -3.06199419e-01,  -1.54344175e+00,  -2.09584669e+00],
          [ -5.92436150e+00,  -2.65670419e-01,   9.29846468e-01,
             3.65221153e-01,   6.02646715e-01,  -2.10926350e+00]],
  
         [[ -5.80496553e+00,  -2.65803925e-01,  -1.92358290e+00,
             7.48063317e-01,  -2.01177025e+00,   1.09505522e+00],
          [ -2.96218075e+00,   4.64923234e-01,  -1.32835210e-01,
             1.82610576e-01,  -1.05463175e+00,   3.01323357e-01]],
  
         [[  1.67566248e+01,  -1.68318934e+01,   1.49533198e+01,
            -1.03300142e+00,   1.96926018e+01,  -1.54312460e+01],
          [  3.35132495e+01,  -1.87857355e+00,  -1.87857355e+00,
            -2.06600283e+00,   4.26135579e+00,   4.26135579e+00]],
  
         [[  2.82503376e+01,   9.17612187e-01,  -3.09705674e+01,
             1.51714233e+01,   9.24055761e+00,   2.32121431e+00],
          [  5.13064756e+01,   2.30077332e+00,  -8.05270663e+00,
            -3.16290796e+00,  -5.21907365e+00,   1.82667578e+01]],
  
         [[ -1.03125950e+01,  -2.59334825e+01,  -1.94780023e+01,
             2.99298875e+01,  -1.30772892e+01,   1.80366977e+01],
          [ -2.96218075e+01,   1.06268168e+01,  -7.30593654e+00,
             1.82610576e+00,  -2.41058686e+01,   1.65727847e+01]],
  
         [[ -5.56045205e+00,   1.67566248e+01,   3.68187850e+00,
            -5.87553297e+00,  -1.03300142e+00,   1.01368888e+01],
          [ -1.67566248e+01,  -1.87857355e+00,   3.75714710e+00,
             1.03300142e+00,   4.26135579e+00,  -8.52271158e+00]],
  
         [[  1.71175227e+01,   3.45115998e+00,   6.76404271e+00,
            -4.86317762e+00,  -7.82861047e+00,   1.86226538e+01],
          [ -2.30100456e+01,   4.32267975e+00,   7.77383974e+00,
             6.90770636e+00,   1.28385721e+01,   5.00996158e+00]],
  
         [[ -9.82958338e+00,   2.96218075e+01,   6.50870313e+00,
            -1.03865730e+01,  -1.82610576e+00,   1.79196570e+01],
          [  1.93890469e+01,   2.17369257e+00,   1.21363333e+01,
             8.31228685e+00,   3.42899934e+01,   1.16907416e+01]]]), (1, 0): array([[[ -1.46118731e+00,   2.96218075e+00,   1.12909928e+00,
             3.31455693e+00,  -1.82610576e-01,  -2.56124854e+00],
          [  1.01010877e+01,   6.32753871e-01,   1.15078898e+00,
            -3.45065372e-02,  -2.08901868e+00,   4.27037407e-03]],
  
         [[  9.29846468e-01,  -5.92436150e+00,  -2.65670419e-01,
            -2.10926350e+00,   3.65221153e-01,   6.02646715e-01],
          [ -5.75744296e+00,  -2.60133169e+00,  -3.69744599e-01,
            -1.34168093e-02,   6.71420571e-01,   2.14608846e+00]],
  
         [[ -1.32835210e-01,  -2.96218075e+00,   4.64923234e-01,
             3.01323357e-01,   1.82610576e-01,  -1.05463175e+00],
          [  1.79074769e+00,   2.84278478e+00,   7.30727159e-01,
            -7.93731867e-01,  -5.65452740e-01,   9.57138496e-01]],
  
         [[  1.12909928e+00,   2.96218075e+00,  -1.46118731e+00,
            -2.56124854e+00,  -1.82610576e-01,   3.31455693e+00],
          [ -2.16896924e-02,   2.32942688e+00,  -1.15622750e+01,
            -2.56551891e+00,   1.90640810e+00,   3.34906347e+00]],
  
         [[ -2.65670419e-01,  -5.92436150e+00,   9.29846468e-01,
             6.02646715e-01,   3.65221153e-01,  -2.10926350e+00],
          [  1.04074179e-01,  -3.32302980e+00,   6.68728943e+00,
            -1.54344175e+00,  -3.06199419e-01,  -2.09584669e+00]],
  
         [[  4.64923234e-01,  -2.96218075e+00,  -1.32835210e-01,
            -1.05463175e+00,   1.82610576e-01,   3.01323357e-01],
          [ -2.65803925e-01,  -5.80496553e+00,  -1.92358290e+00,
            -2.01177025e+00,   7.48063317e-01,   1.09505522e+00]],
  
         [[  4.25300978e+00,   2.44114232e-01,  -5.75730946e+00,
             8.11352878e-01,  -5.53748666e-01,   2.60100015e+00],
          [  4.75292844e+00,   1.85982644e+00,   1.38159747e+00,
            -9.76342444e-01,  -1.60411004e+00,   2.74910419e+00]],
  
         [[ -1.00103192e+01,  -2.35718934e-15,   1.00103192e+01,
             1.78964727e+00,  -1.68395402e-15,  -1.78964727e+00],
          [ -1.16818045e+01,  -6.35415018e-01,  -1.67148523e+00,
             3.51804343e-01,   2.74873518e+00,  -1.43784293e+00]],
  
         [[  5.75730946e+00,  -2.44114232e-01,  -4.25300978e+00,
            -2.60100015e+00,   5.53748666e-01,  -8.11352878e-01],
          [  7.13890693e+00,   1.61571221e+00,   4.99918662e-01,
             1.48104039e-01,  -1.05036138e+00,  -1.78769532e+00]],
  
         [[ -1.87857355e+00,  -1.67566248e+01,   3.75714710e+00,
             4.26135579e+00,   1.03300142e+00,  -8.52271158e+00],
          [  1.67566248e+01,  -5.56045205e+00,   3.68187850e+00,
            -1.03300142e+00,  -5.87553297e+00,   1.01368888e+01]],
  
         [[  4.04381286e+00,   5.28638436e+00,   1.43972928e+01,
             3.61152914e+01,   1.06525048e+01,   1.26294600e+01],
          [  2.73788178e+01,   4.60924187e-02,   9.01872362e+00,
            -5.49575922e+00,  -1.14266249e+01,   2.48302050e+01]],
  
         [[  2.65670419e+00,  -2.96218075e+01,   6.64176049e-01,
            -6.02646715e+00,   1.82610576e+00,  -1.50661679e+00],
          [ -1.18221115e+01,   1.97390012e+01,   2.60348125e+00,
            -5.86672266e+00,   9.81651146e-01,   7.16786278e+00]],
  
         [[ -1.87857355e+00,   3.35132495e+01,  -1.87857355e+00,
             4.26135579e+00,  -2.06600283e+00,   4.26135579e+00],
          [ -1.68318934e+01,   1.67566248e+01,   1.49533198e+01,
             1.96926018e+01,  -1.03300142e+00,  -1.54312460e+01]],
  
         [[  1.03534800e+01,   1.49063230e-13,  -1.03534800e+01,
            -2.34858314e+01,   4.52552487e-16,   2.34858314e+01],
          [ -2.20002486e+01,   5.19419952e+00,  -3.23537285e+01,
            -6.70498584e+00,   3.35057546e+01,   1.67808456e+01]],
  
         [[ -3.32088024e+00,   5.92436150e+01,  -3.32088024e+00,
             7.53308394e+00,  -3.65221153e+00,   7.53308394e+00],
          [  1.37614167e+01,   2.96218075e+01,  -1.70822970e+01,
             1.45412022e+01,  -1.82610576e+00,  -7.00811830e+00]]]), (0, 0): array([[[ -2.25727001e-01,  -1.61287863e-01,  -1.05300034e-01,
             1.56610831e-02,   8.37516399e-02,   1.42911998e-01],
          [  6.07168080e-01,   1.26094480e-01,   2.46521447e-01,
             1.35717240e-01,  -3.72616214e-01,  -2.45365299e-01]],
  
         [[  3.32587646e-01,   5.96892706e-01,   9.17337129e-02,
            -1.75812247e-01,   1.03469560e-01,  -4.30314077e-01],
          [ -5.96892706e-01,  -3.32587646e-01,  -9.17337129e-02,
            -1.03469560e-01,   1.75812247e-01,   4.30314077e-01]],
  
         [[ -1.26094480e-01,  -6.07168080e-01,  -2.46521447e-01,
             3.72616214e-01,  -1.35717240e-01,   2.45365299e-01],
          [  1.61287863e-01,   2.25727001e-01,   1.05300034e-01,
            -8.37516399e-02,  -1.56610831e-02,  -1.42911998e-01]],
  
         [[  1.05300034e-01,   1.61287863e-01,   2.25727001e-01,
            -1.42911998e-01,  -8.37516399e-02,  -1.56610831e-02],
          [  3.51821481e-01,   2.87382344e-01,   8.32895081e-01,
            -3.88277298e-01,  -4.56367854e-01,   1.20056157e-01]],
  
         [[ -9.17337129e-02,  -5.96892706e-01,  -3.32587646e-01,
             4.30314077e-01,  -1.03469560e-01,   1.75812247e-01],
          [ -1.83467426e-01,  -9.29480352e-01,  -9.29480352e-01,
             8.60628155e-01,   7.23426869e-02,   7.23426869e-02]],
  
         [[  2.46521447e-01,   6.07168080e-01,   1.26094480e-01,
            -2.45365299e-01,   1.35717240e-01,  -3.72616214e-01],
          [  3.51821481e-01,   8.32895081e-01,   2.87382344e-01,
            -3.88277298e-01,   1.20056157e-01,  -4.56367854e-01]],
  
         [[  2.87382344e-01,   3.51821481e-01,   8.32895081e-01,
            -4.56367854e-01,  -3.88277298e-01,   1.20056157e-01],
          [  1.61287863e-01,   1.05300034e-01,   2.25727001e-01,
            -8.37516399e-02,  -1.42911998e-01,  -1.56610831e-02]],
  
         [[ -9.29480352e-01,  -1.83467426e-01,  -9.29480352e-01,
             7.23426869e-02,   8.60628155e-01,   7.23426869e-02],
          [ -5.96892706e-01,  -9.17337129e-02,  -3.32587646e-01,
            -1.03469560e-01,   4.30314077e-01,   1.75812247e-01]],
  
         [[  8.32895081e-01,   3.51821481e-01,   2.87382344e-01,
             1.20056157e-01,  -3.88277298e-01,  -4.56367854e-01],
          [  6.07168080e-01,   2.46521447e-01,   1.26094480e-01,
             1.35717240e-01,  -2.45365299e-01,  -3.72616214e-01]],
  
         [[  2.23437001e+00,   8.71894414e-01,   1.55313221e+00,
             4.17598615e+00,   2.73630639e+00,   3.45614627e+00],
          [  1.36991113e-14,  -6.81237797e-01,   6.81237797e-01,
            -1.97064587e-15,  -7.19839880e-01,   7.19839880e-01]],
  
         [[  2.89591927e+00,   1.77974702e-01,  -3.79148362e+00,
            -4.21971734e+00,   5.58546202e-01,   4.01437944e+00],
          [ -1.77974702e-01,  -5.95145951e-01,   1.49071029e+00,
            -5.58546202e-01,  -9.99356303e-01,   1.20469420e+00]],
  
         [[ -1.87746726e+00,   6.20210589e+00,  -3.08173692e+00,
             1.79130134e+00,  -2.92186826e+00,   5.18792192e-01],
          [ -3.08261226e-01,   1.37771630e+00,   1.73446640e-01,
            -9.67430400e-01,   8.14082413e-01,  -4.58426739e-01]],
  
         [[ -6.81237797e-01,   1.77268277e-14,   6.81237797e-01,
            -7.19839880e-01,  -6.75246453e-16,   7.19839880e-01],
          [  8.71894414e-01,   2.23437001e+00,   1.55313221e+00,
             2.73630639e+00,   4.17598615e+00,   3.45614627e+00]],
  
         [[  8.95564343e-01,  -3.55949404e-01,   8.95564343e-01,
             2.05337899e-01,  -1.11709240e+00,   2.05337899e-01],
          [  5.46016861e+00,  -1.77974702e-01,  -4.56460427e+00,
            -2.25113904e+00,  -5.58546202e-01,   2.45647694e+00]],
  
         [[ -1.20426966e+00,   3.32963584e-14,   1.20426966e+00,
            -1.27250915e+00,  -8.16768684e-17,   1.27250915e+00],
          [ -2.94692233e+00,   3.44667329e+00,  -1.74265267e+00,
             1.94464933e+00,  -4.55003309e+00,   3.21715848e+00]]])}}}}}
  
  QG-utils, psi_tables, flat_tables:
  {'FE0_C1_D01': array([[  0.00000000e+00,   0.00000000e+00,   0.00000000e+00,
           -1.00000000e+00,   8.88178420e-16,   1.00000000e+00],
         [  0.00000000e+00,   0.00000000e+00,   0.00000000e+00,
           -1.00000000e+00,   8.88178420e-16,   1.00000000e+00],
         [  0.00000000e+00,   0.00000000e+00,   0.00000000e+00,
           -1.00000000e+00,   8.88178420e-16,   1.00000000e+00],
         [  0.00000000e+00,   0.00000000e+00,   0.00000000e+00,
           -1.00000000e+00,   8.88178420e-16,   1.00000000e+00],
         [  0.00000000e+00,   0.00000000e+00,   0.00000000e+00,
           -1.00000000e+00,   8.88178420e-16,   1.00000000e+00],
         [  0.00000000e+00,   0.00000000e+00,   0.00000000e+00,
           -1.00000000e+00,   8.88178420e-16,   1.00000000e+00]]), 'FE1_C0': array([[ -2.25727001e-01,   3.32587646e-01,  -1.26094480e-01,
            1.05300034e-01,  -9.17337129e-02,   2.46521447e-01,
            2.87382344e-01,  -9.29480352e-01,   8.32895081e-01,
            2.23437001e+00,   2.89591927e+00,  -1.87746726e+00,
           -6.81237797e-01,   8.95564343e-01,  -1.20426966e+00],
         [ -1.61287863e-01,   5.96892706e-01,  -6.07168080e-01,
            1.61287863e-01,  -5.96892706e-01,   6.07168080e-01,
            3.51821481e-01,  -1.83467426e-01,   3.51821481e-01,
            8.71894414e-01,   1.77974702e-01,   6.20210589e+00,
            1.77268277e-14,  -3.55949404e-01,   3.32963584e-14],
         [ -1.05300034e-01,   9.17337129e-02,  -2.46521447e-01,
            2.25727001e-01,  -3.32587646e-01,   1.26094480e-01,
            8.32895081e-01,  -9.29480352e-01,   2.87382344e-01,
            1.55313221e+00,  -3.79148362e+00,  -3.08173692e+00,
            6.81237797e-01,   8.95564343e-01,   1.20426966e+00],
         [  1.56610831e-02,  -1.75812247e-01,   3.72616214e-01,
           -1.42911998e-01,   4.30314077e-01,  -2.45365299e-01,
           -4.56367854e-01,   7.23426869e-02,   1.20056157e-01,
            4.17598615e+00,  -4.21971734e+00,   1.79130134e+00,
           -7.19839880e-01,   2.05337899e-01,  -1.27250915e+00],
         [  8.37516399e-02,   1.03469560e-01,  -1.35717240e-01,
           -8.37516399e-02,  -1.03469560e-01,   1.35717240e-01,
           -3.88277298e-01,   8.60628155e-01,  -3.88277298e-01,
            2.73630639e+00,   5.58546202e-01,  -2.92186826e+00,
           -6.75246453e-16,  -1.11709240e+00,  -8.16768684e-17],
         [  1.42911998e-01,  -4.30314077e-01,   2.45365299e-01,
           -1.56610831e-02,   1.75812247e-01,  -3.72616214e-01,
            1.20056157e-01,   7.23426869e-02,  -4.56367854e-01,
            3.45614627e+00,   4.01437944e+00,   5.18792192e-01,
            7.19839880e-01,   2.05337899e-01,   1.27250915e+00]]), 'FE1_C1': array([[  6.07168080e-01,  -5.96892706e-01,   1.61287863e-01,
            3.51821481e-01,  -1.83467426e-01,   3.51821481e-01,
            1.61287863e-01,  -5.96892706e-01,   6.07168080e-01,
            1.36991113e-14,  -1.77974702e-01,  -3.08261226e-01,
            8.71894414e-01,   5.46016861e+00,  -2.94692233e+00],
         [  1.26094480e-01,  -3.32587646e-01,   2.25727001e-01,
            2.87382344e-01,  -9.29480352e-01,   8.32895081e-01,
            1.05300034e-01,  -9.17337129e-02,   2.46521447e-01,
           -6.81237797e-01,  -5.95145951e-01,   1.37771630e+00,
            2.23437001e+00,  -1.77974702e-01,   3.44667329e+00],
         [  2.46521447e-01,  -9.17337129e-02,   1.05300034e-01,
            8.32895081e-01,  -9.29480352e-01,   2.87382344e-01,
            2.25727001e-01,  -3.32587646e-01,   1.26094480e-01,
            6.81237797e-01,   1.49071029e+00,   1.73446640e-01,
            1.55313221e+00,  -4.56460427e+00,  -1.74265267e+00],
         [  1.35717240e-01,  -1.03469560e-01,  -8.37516399e-02,
           -3.88277298e-01,   8.60628155e-01,  -3.88277298e-01,
           -8.37516399e-02,  -1.03469560e-01,   1.35717240e-01,
           -1.97064587e-15,  -5.58546202e-01,  -9.67430400e-01,
            2.73630639e+00,  -2.25113904e+00,   1.94464933e+00],
         [ -3.72616214e-01,   1.75812247e-01,  -1.56610831e-02,
           -4.56367854e-01,   7.23426869e-02,   1.20056157e-01,
           -1.42911998e-01,   4.30314077e-01,  -2.45365299e-01,
           -7.19839880e-01,  -9.99356303e-01,   8.14082413e-01,
            4.17598615e+00,  -5.58546202e-01,  -4.55003309e+00],
         [ -2.45365299e-01,   4.30314077e-01,  -1.42911998e-01,
            1.20056157e-01,   7.23426869e-02,  -4.56367854e-01,
           -1.56610831e-02,   1.75812247e-01,  -3.72616214e-01,
            7.19839880e-01,   1.20469420e+00,  -4.58426739e-01,
            3.45614627e+00,   2.45647694e+00,   3.21715848e+00]]), 'FE0_C1_D10': array([[ 0.,  0.,  0., -1.,  1.,  0.],
         [ 0.,  0.,  0., -1.,  1.,  0.],
         [ 0.,  0.,  0., -1.,  1.,  0.],
         [ 0.,  0.,  0., -1.,  1.,  0.],
         [ 0.,  0.,  0., -1.,  1.,  0.],
         [ 0.,  0.,  0., -1.,  1.,  0.]]), 'FE1_C1_D10': array([[  1.01010877e+01,  -5.75744296e+00,   1.79074769e+00,
           -2.16896924e-02,   1.04074179e-01,  -2.65803925e-01,
            4.75292844e+00,  -1.16818045e+01,   7.13890693e+00,
            1.67566248e+01,   2.73788178e+01,  -1.18221115e+01,
           -1.68318934e+01,  -2.20002486e+01,   1.37614167e+01],
         [  6.32753871e-01,  -2.60133169e+00,   2.84278478e+00,
            2.32942688e+00,  -3.32302980e+00,  -5.80496553e+00,
            1.85982644e+00,  -6.35415018e-01,   1.61571221e+00,
           -5.56045205e+00,   4.60924187e-02,   1.97390012e+01,
            1.67566248e+01,   5.19419952e+00,   2.96218075e+01],
         [  1.15078898e+00,  -3.69744599e-01,   7.30727159e-01,
           -1.15622750e+01,   6.68728943e+00,  -1.92358290e+00,
            1.38159747e+00,  -1.67148523e+00,   4.99918662e-01,
            3.68187850e+00,   9.01872362e+00,   2.60348125e+00,
            1.49533198e+01,  -3.23537285e+01,  -1.70822970e+01],
         [ -3.45065372e-02,  -1.34168093e-02,  -7.93731867e-01,
           -2.56551891e+00,  -1.54344175e+00,  -2.01177025e+00,
           -9.76342444e-01,   3.51804343e-01,   1.48104039e-01,
           -1.03300142e+00,  -5.49575922e+00,  -5.86672266e+00,
            1.96926018e+01,  -6.70498584e+00,   1.45412022e+01],
         [ -2.08901868e+00,   6.71420571e-01,  -5.65452740e-01,
            1.90640810e+00,  -3.06199419e-01,   7.48063317e-01,
           -1.60411004e+00,   2.74873518e+00,  -1.05036138e+00,
           -5.87553297e+00,  -1.14266249e+01,   9.81651146e-01,
           -1.03300142e+00,   3.35057546e+01,  -1.82610576e+00],
         [  4.27037407e-03,   2.14608846e+00,   9.57138496e-01,
            3.34906347e+00,  -2.09584669e+00,   1.09505522e+00,
            2.74910419e+00,  -1.43784293e+00,  -1.78769532e+00,
            1.01368888e+01,   2.48302050e+01,   7.16786278e+00,
           -1.54312460e+01,   1.67808456e+01,  -7.00811830e+00]]), 'FE0_C0_D10': array([[-1.,  1.,  0.,  0.,  0.,  0.],
         [-1.,  1.,  0.,  0.,  0.,  0.],
         [-1.,  1.,  0.,  0.,  0.,  0.],
         [-1.,  1.,  0.,  0.,  0.,  0.],
         [-1.,  1.,  0.,  0.,  0.,  0.],
         [-1.,  1.,  0.,  0.,  0.,  0.]]), 'FE0_C0_D01': array([[ -1.00000000e+00,   8.88178420e-16,   1.00000000e+00,
            0.00000000e+00,   0.00000000e+00,   0.00000000e+00],
         [ -1.00000000e+00,   8.88178420e-16,   1.00000000e+00,
            0.00000000e+00,   0.00000000e+00,   0.00000000e+00],
         [ -1.00000000e+00,   8.88178420e-16,   1.00000000e+00,
            0.00000000e+00,   0.00000000e+00,   0.00000000e+00],
         [ -1.00000000e+00,   8.88178420e-16,   1.00000000e+00,
            0.00000000e+00,   0.00000000e+00,   0.00000000e+00],
         [ -1.00000000e+00,   8.88178420e-16,   1.00000000e+00,
            0.00000000e+00,   0.00000000e+00,   0.00000000e+00],
         [ -1.00000000e+00,   8.88178420e-16,   1.00000000e+00,
            0.00000000e+00,   0.00000000e+00,   0.00000000e+00]]), 'FE1_C1_D01': array([[  2.96218075e+00,   5.92436150e+00,  -2.96218075e+00,
            2.44114232e-01,   1.08801856e-14,  -2.44114232e-01,
            2.96218075e+00,  -5.92436150e+00,  -2.96218075e+00,
            3.35132495e+01,   5.13064756e+01,  -2.96218075e+01,
           -1.67566248e+01,  -2.30100456e+01,   1.93890469e+01],
         [  1.32835210e-01,  -9.29846468e-01,   1.46118731e+00,
            4.25300978e+00,  -1.00103192e+01,   5.75730946e+00,
            1.12909928e+00,  -2.65670419e-01,   4.64923234e-01,
           -1.87857355e+00,   2.30077332e+00,   1.06268168e+01,
           -1.87857355e+00,   4.32267975e+00,   2.17369257e+00],
         [ -4.64923234e-01,   2.65670419e-01,  -1.12909928e+00,
           -5.75730946e+00,   1.00103192e+01,  -4.25300978e+00,
           -1.46118731e+00,   9.29846468e-01,  -1.32835210e-01,
           -1.87857355e+00,  -8.05270663e+00,  -7.30593654e+00,
            3.75714710e+00,   7.77383974e+00,   1.21363333e+01],
         [ -1.82610576e-01,  -3.65221153e-01,   1.82610576e-01,
           -5.53748666e-01,   2.45359288e-14,   5.53748666e-01,
           -1.82610576e-01,   3.65221153e-01,   1.82610576e-01,
           -2.06600283e+00,  -3.16290796e+00,   1.82610576e+00,
            1.03300142e+00,   6.90770636e+00,   8.31228685e+00],
         [ -3.01323357e-01,   2.10926350e+00,  -3.31455693e+00,
            8.11352878e-01,   1.78964727e+00,  -2.60100015e+00,
           -2.56124854e+00,   6.02646715e-01,  -1.05463175e+00,
            4.26135579e+00,  -5.21907365e+00,  -2.41058686e+01,
            4.26135579e+00,   1.28385721e+01,   3.42899934e+01],
         [  1.05463175e+00,  -6.02646715e-01,   2.56124854e+00,
            2.60100015e+00,  -1.78964727e+00,  -8.11352878e-01,
            3.31455693e+00,  -2.10926350e+00,   3.01323357e-01,
            4.26135579e+00,   1.82667578e+01,   1.65727847e+01,
           -8.52271158e+00,   5.00996158e+00,   1.16907416e+01]]), 'FE1_C0_D01': array([[ -2.84278478e+00,   2.60133169e+00,  -6.32753871e-01,
            1.85982644e+00,  -6.35415018e-01,   1.61571221e+00,
            2.32942688e+00,  -3.32302980e+00,  -5.80496553e+00,
            1.67566248e+01,   2.82503376e+01,  -1.03125950e+01,
           -5.56045205e+00,   1.71175227e+01,  -9.82958338e+00],
         [ -1.79074769e+00,   5.75744296e+00,  -1.01010877e+01,
            4.75292844e+00,  -1.16818045e+01,   7.13890693e+00,
           -2.16896924e-02,   1.04074179e-01,  -2.65803925e-01,
           -1.68318934e+01,   9.17612187e-01,  -2.59334825e+01,
            1.67566248e+01,   3.45115998e+00,   2.96218075e+01],
         [ -7.30727159e-01,   3.69744599e-01,  -1.15078898e+00,
            1.38159747e+00,  -1.67148523e+00,   4.99918662e-01,
           -1.15622750e+01,   6.68728943e+00,  -1.92358290e+00,
            1.49533198e+01,  -3.09705674e+01,  -1.94780023e+01,
            3.68187850e+00,   6.76404271e+00,   6.50870313e+00],
         [  5.65452740e-01,  -6.71420571e-01,   2.08901868e+00,
           -1.60411004e+00,   2.74873518e+00,  -1.05036138e+00,
            1.90640810e+00,  -3.06199419e-01,   7.48063317e-01,
           -1.03300142e+00,   1.51714233e+01,   2.99298875e+01,
           -5.87553297e+00,  -4.86317762e+00,  -1.03865730e+01],
         [  7.93731867e-01,   1.34168093e-02,   3.45065372e-02,
           -9.76342444e-01,   3.51804343e-01,   1.48104039e-01,
           -2.56551891e+00,  -1.54344175e+00,  -2.01177025e+00,
            1.96926018e+01,   9.24055761e+00,  -1.30772892e+01,
           -1.03300142e+00,  -7.82861047e+00,  -1.82610576e+00],
         [ -9.57138496e-01,  -2.14608846e+00,  -4.27037407e-03,
            2.74910419e+00,  -1.43784293e+00,  -1.78769532e+00,
            3.34906347e+00,  -2.09584669e+00,   1.09505522e+00,
           -1.54312460e+01,   2.32121431e+00,   1.80366977e+01,
            1.01368888e+01,   1.86226538e+01,   1.79196570e+01]]), 'FE1_C0_D10': array([[ -1.46118731e+00,   9.29846468e-01,  -1.32835210e-01,
            1.12909928e+00,  -2.65670419e-01,   4.64923234e-01,
            4.25300978e+00,  -1.00103192e+01,   5.75730946e+00,
           -1.87857355e+00,   4.04381286e+00,   2.65670419e+00,
           -1.87857355e+00,   1.03534800e+01,  -3.32088024e+00],
         [  2.96218075e+00,  -5.92436150e+00,  -2.96218075e+00,
            2.96218075e+00,  -5.92436150e+00,  -2.96218075e+00,
            2.44114232e-01,  -2.35718934e-15,  -2.44114232e-01,
           -1.67566248e+01,   5.28638436e+00,  -2.96218075e+01,
            3.35132495e+01,   1.49063230e-13,   5.92436150e+01],
         [  1.12909928e+00,  -2.65670419e-01,   4.64923234e-01,
           -1.46118731e+00,   9.29846468e-01,  -1.32835210e-01,
           -5.75730946e+00,   1.00103192e+01,  -4.25300978e+00,
            3.75714710e+00,   1.43972928e+01,   6.64176049e-01,
           -1.87857355e+00,  -1.03534800e+01,  -3.32088024e+00],
         [  3.31455693e+00,  -2.10926350e+00,   3.01323357e-01,
           -2.56124854e+00,   6.02646715e-01,  -1.05463175e+00,
            8.11352878e-01,   1.78964727e+00,  -2.60100015e+00,
            4.26135579e+00,   3.61152914e+01,  -6.02646715e+00,
            4.26135579e+00,  -2.34858314e+01,   7.53308394e+00],
         [ -1.82610576e-01,   3.65221153e-01,   1.82610576e-01,
           -1.82610576e-01,   3.65221153e-01,   1.82610576e-01,
           -5.53748666e-01,  -1.68395402e-15,   5.53748666e-01,
            1.03300142e+00,   1.06525048e+01,   1.82610576e+00,
           -2.06600283e+00,   4.52552487e-16,  -3.65221153e+00],
         [ -2.56124854e+00,   6.02646715e-01,  -1.05463175e+00,
            3.31455693e+00,  -2.10926350e+00,   3.01323357e-01,
            2.60100015e+00,  -1.78964727e+00,  -8.11352878e-01,
           -8.52271158e+00,   1.26294600e+01,  -1.50661679e+00,
            4.26135579e+00,   2.34858314e+01,   7.53308394e+00]]), 'FE0_C1': array([[ 0.        ,  0.        ,  0.        ,  0.09157621,  0.81684757,
           0.09157621],
         [ 0.        ,  0.        ,  0.        ,  0.09157621,  0.09157621,
           0.81684757],
         [ 0.        ,  0.        ,  0.        ,  0.81684757,  0.09157621,
           0.09157621],
         [ 0.        ,  0.        ,  0.        ,  0.44594849,  0.10810302,
           0.44594849],
         [ 0.        ,  0.        ,  0.        ,  0.44594849,  0.44594849,
           0.10810302],
         [ 0.        ,  0.        ,  0.        ,  0.10810302,  0.44594849,
           0.44594849]]), 'FE0_C0': array([[ 0.09157621,  0.81684757,  0.09157621,  0.        ,  0.        ,
           0.        ],
         [ 0.09157621,  0.09157621,  0.81684757,  0.        ,  0.        ,
           0.        ],
         [ 0.81684757,  0.09157621,  0.09157621,  0.        ,  0.        ,
           0.        ],
         [ 0.44594849,  0.10810302,  0.44594849,  0.        ,  0.        ,
           0.        ],
         [ 0.44594849,  0.44594849,  0.10810302,  0.        ,  0.        ,
           0.        ],
         [ 0.10810302,  0.44594849,  0.44594849,  0.        ,  0.        ,
           0.        ]])}
  
  tables: {'FE0_C1_D01': array([[  0.00000000e+00,   0.00000000e+00,   0.00000000e+00,
           -1.00000000e+00,   8.88178420e-16,   1.00000000e+00],
         [  0.00000000e+00,   0.00000000e+00,   0.00000000e+00,
           -1.00000000e+00,   8.88178420e-16,   1.00000000e+00],
         [  0.00000000e+00,   0.00000000e+00,   0.00000000e+00,
           -1.00000000e+00,   8.88178420e-16,   1.00000000e+00],
         [  0.00000000e+00,   0.00000000e+00,   0.00000000e+00,
           -1.00000000e+00,   8.88178420e-16,   1.00000000e+00],
         [  0.00000000e+00,   0.00000000e+00,   0.00000000e+00,
           -1.00000000e+00,   8.88178420e-16,   1.00000000e+00],
         [  0.00000000e+00,   0.00000000e+00,   0.00000000e+00,
           -1.00000000e+00,   8.88178420e-16,   1.00000000e+00]]), 'FE1_C0': array([[ -2.25727001e-01,   3.32587646e-01,  -1.26094480e-01,
            1.05300034e-01,  -9.17337129e-02,   2.46521447e-01,
            2.87382344e-01,  -9.29480352e-01,   8.32895081e-01,
            2.23437001e+00,   2.89591927e+00,  -1.87746726e+00,
           -6.81237797e-01,   8.95564343e-01,  -1.20426966e+00],
         [ -1.61287863e-01,   5.96892706e-01,  -6.07168080e-01,
            1.61287863e-01,  -5.96892706e-01,   6.07168080e-01,
            3.51821481e-01,  -1.83467426e-01,   3.51821481e-01,
            8.71894414e-01,   1.77974702e-01,   6.20210589e+00,
            1.77268277e-14,  -3.55949404e-01,   3.32963584e-14],
         [ -1.05300034e-01,   9.17337129e-02,  -2.46521447e-01,
            2.25727001e-01,  -3.32587646e-01,   1.26094480e-01,
            8.32895081e-01,  -9.29480352e-01,   2.87382344e-01,
            1.55313221e+00,  -3.79148362e+00,  -3.08173692e+00,
            6.81237797e-01,   8.95564343e-01,   1.20426966e+00],
         [  1.56610831e-02,  -1.75812247e-01,   3.72616214e-01,
           -1.42911998e-01,   4.30314077e-01,  -2.45365299e-01,
           -4.56367854e-01,   7.23426869e-02,   1.20056157e-01,
            4.17598615e+00,  -4.21971734e+00,   1.79130134e+00,
           -7.19839880e-01,   2.05337899e-01,  -1.27250915e+00],
         [  8.37516399e-02,   1.03469560e-01,  -1.35717240e-01,
           -8.37516399e-02,  -1.03469560e-01,   1.35717240e-01,
           -3.88277298e-01,   8.60628155e-01,  -3.88277298e-01,
            2.73630639e+00,   5.58546202e-01,  -2.92186826e+00,
           -6.75246453e-16,  -1.11709240e+00,  -8.16768684e-17],
         [  1.42911998e-01,  -4.30314077e-01,   2.45365299e-01,
           -1.56610831e-02,   1.75812247e-01,  -3.72616214e-01,
            1.20056157e-01,   7.23426869e-02,  -4.56367854e-01,
            3.45614627e+00,   4.01437944e+00,   5.18792192e-01,
            7.19839880e-01,   2.05337899e-01,   1.27250915e+00]]), 'FE1_C1': array([[  6.07168080e-01,  -5.96892706e-01,   1.61287863e-01,
            3.51821481e-01,  -1.83467426e-01,   3.51821481e-01,
            1.61287863e-01,  -5.96892706e-01,   6.07168080e-01,
            1.36991113e-14,  -1.77974702e-01,  -3.08261226e-01,
            8.71894414e-01,   5.46016861e+00,  -2.94692233e+00],
         [  1.26094480e-01,  -3.32587646e-01,   2.25727001e-01,
            2.87382344e-01,  -9.29480352e-01,   8.32895081e-01,
            1.05300034e-01,  -9.17337129e-02,   2.46521447e-01,
           -6.81237797e-01,  -5.95145951e-01,   1.37771630e+00,
            2.23437001e+00,  -1.77974702e-01,   3.44667329e+00],
         [  2.46521447e-01,  -9.17337129e-02,   1.05300034e-01,
            8.32895081e-01,  -9.29480352e-01,   2.87382344e-01,
            2.25727001e-01,  -3.32587646e-01,   1.26094480e-01,
            6.81237797e-01,   1.49071029e+00,   1.73446640e-01,
            1.55313221e+00,  -4.56460427e+00,  -1.74265267e+00],
         [  1.35717240e-01,  -1.03469560e-01,  -8.37516399e-02,
           -3.88277298e-01,   8.60628155e-01,  -3.88277298e-01,
           -8.37516399e-02,  -1.03469560e-01,   1.35717240e-01,
           -1.97064587e-15,  -5.58546202e-01,  -9.67430400e-01,
            2.73630639e+00,  -2.25113904e+00,   1.94464933e+00],
         [ -3.72616214e-01,   1.75812247e-01,  -1.56610831e-02,
           -4.56367854e-01,   7.23426869e-02,   1.20056157e-01,
           -1.42911998e-01,   4.30314077e-01,  -2.45365299e-01,
           -7.19839880e-01,  -9.99356303e-01,   8.14082413e-01,
            4.17598615e+00,  -5.58546202e-01,  -4.55003309e+00],
         [ -2.45365299e-01,   4.30314077e-01,  -1.42911998e-01,
            1.20056157e-01,   7.23426869e-02,  -4.56367854e-01,
           -1.56610831e-02,   1.75812247e-01,  -3.72616214e-01,
            7.19839880e-01,   1.20469420e+00,  -4.58426739e-01,
            3.45614627e+00,   2.45647694e+00,   3.21715848e+00]]), 'FE0_C1_D10': array([[ 0.,  0.,  0., -1.,  1.,  0.],
         [ 0.,  0.,  0., -1.,  1.,  0.],
         [ 0.,  0.,  0., -1.,  1.,  0.],
         [ 0.,  0.,  0., -1.,  1.,  0.],
         [ 0.,  0.,  0., -1.,  1.,  0.],
         [ 0.,  0.,  0., -1.,  1.,  0.]]), 'FE1_C1_D10': array([[  1.01010877e+01,  -5.75744296e+00,   1.79074769e+00,
           -2.16896924e-02,   1.04074179e-01,  -2.65803925e-01,
            4.75292844e+00,  -1.16818045e+01,   7.13890693e+00,
            1.67566248e+01,   2.73788178e+01,  -1.18221115e+01,
           -1.68318934e+01,  -2.20002486e+01,   1.37614167e+01],
         [  6.32753871e-01,  -2.60133169e+00,   2.84278478e+00,
            2.32942688e+00,  -3.32302980e+00,  -5.80496553e+00,
            1.85982644e+00,  -6.35415018e-01,   1.61571221e+00,
           -5.56045205e+00,   4.60924187e-02,   1.97390012e+01,
            1.67566248e+01,   5.19419952e+00,   2.96218075e+01],
         [  1.15078898e+00,  -3.69744599e-01,   7.30727159e-01,
           -1.15622750e+01,   6.68728943e+00,  -1.92358290e+00,
            1.38159747e+00,  -1.67148523e+00,   4.99918662e-01,
            3.68187850e+00,   9.01872362e+00,   2.60348125e+00,
            1.49533198e+01,  -3.23537285e+01,  -1.70822970e+01],
         [ -3.45065372e-02,  -1.34168093e-02,  -7.93731867e-01,
           -2.56551891e+00,  -1.54344175e+00,  -2.01177025e+00,
           -9.76342444e-01,   3.51804343e-01,   1.48104039e-01,
           -1.03300142e+00,  -5.49575922e+00,  -5.86672266e+00,
            1.96926018e+01,  -6.70498584e+00,   1.45412022e+01],
         [ -2.08901868e+00,   6.71420571e-01,  -5.65452740e-01,
            1.90640810e+00,  -3.06199419e-01,   7.48063317e-01,
           -1.60411004e+00,   2.74873518e+00,  -1.05036138e+00,
           -5.87553297e+00,  -1.14266249e+01,   9.81651146e-01,
           -1.03300142e+00,   3.35057546e+01,  -1.82610576e+00],
         [  4.27037407e-03,   2.14608846e+00,   9.57138496e-01,
            3.34906347e+00,  -2.09584669e+00,   1.09505522e+00,
            2.74910419e+00,  -1.43784293e+00,  -1.78769532e+00,
            1.01368888e+01,   2.48302050e+01,   7.16786278e+00,
           -1.54312460e+01,   1.67808456e+01,  -7.00811830e+00]]), 'FE0_C0_D10': array([[-1.,  1.,  0.,  0.,  0.,  0.],
         [-1.,  1.,  0.,  0.,  0.,  0.],
         [-1.,  1.,  0.,  0.,  0.,  0.],
         [-1.,  1.,  0.,  0.,  0.,  0.],
         [-1.,  1.,  0.,  0.,  0.,  0.],
         [-1.,  1.,  0.,  0.,  0.,  0.]]), 'FE0_C0_D01': array([[ -1.00000000e+00,   8.88178420e-16,   1.00000000e+00,
            0.00000000e+00,   0.00000000e+00,   0.00000000e+00],
         [ -1.00000000e+00,   8.88178420e-16,   1.00000000e+00,
            0.00000000e+00,   0.00000000e+00,   0.00000000e+00],
         [ -1.00000000e+00,   8.88178420e-16,   1.00000000e+00,
            0.00000000e+00,   0.00000000e+00,   0.00000000e+00],
         [ -1.00000000e+00,   8.88178420e-16,   1.00000000e+00,
            0.00000000e+00,   0.00000000e+00,   0.00000000e+00],
         [ -1.00000000e+00,   8.88178420e-16,   1.00000000e+00,
            0.00000000e+00,   0.00000000e+00,   0.00000000e+00],
         [ -1.00000000e+00,   8.88178420e-16,   1.00000000e+00,
            0.00000000e+00,   0.00000000e+00,   0.00000000e+00]]), 'FE1_C1_D01': array([[  2.96218075e+00,   5.92436150e+00,  -2.96218075e+00,
            2.44114232e-01,   1.08801856e-14,  -2.44114232e-01,
            2.96218075e+00,  -5.92436150e+00,  -2.96218075e+00,
            3.35132495e+01,   5.13064756e+01,  -2.96218075e+01,
           -1.67566248e+01,  -2.30100456e+01,   1.93890469e+01],
         [  1.32835210e-01,  -9.29846468e-01,   1.46118731e+00,
            4.25300978e+00,  -1.00103192e+01,   5.75730946e+00,
            1.12909928e+00,  -2.65670419e-01,   4.64923234e-01,
           -1.87857355e+00,   2.30077332e+00,   1.06268168e+01,
           -1.87857355e+00,   4.32267975e+00,   2.17369257e+00],
         [ -4.64923234e-01,   2.65670419e-01,  -1.12909928e+00,
           -5.75730946e+00,   1.00103192e+01,  -4.25300978e+00,
           -1.46118731e+00,   9.29846468e-01,  -1.32835210e-01,
           -1.87857355e+00,  -8.05270663e+00,  -7.30593654e+00,
            3.75714710e+00,   7.77383974e+00,   1.21363333e+01],
         [ -1.82610576e-01,  -3.65221153e-01,   1.82610576e-01,
           -5.53748666e-01,   2.45359288e-14,   5.53748666e-01,
           -1.82610576e-01,   3.65221153e-01,   1.82610576e-01,
           -2.06600283e+00,  -3.16290796e+00,   1.82610576e+00,
            1.03300142e+00,   6.90770636e+00,   8.31228685e+00],
         [ -3.01323357e-01,   2.10926350e+00,  -3.31455693e+00,
            8.11352878e-01,   1.78964727e+00,  -2.60100015e+00,
           -2.56124854e+00,   6.02646715e-01,  -1.05463175e+00,
            4.26135579e+00,  -5.21907365e+00,  -2.41058686e+01,
            4.26135579e+00,   1.28385721e+01,   3.42899934e+01],
         [  1.05463175e+00,  -6.02646715e-01,   2.56124854e+00,
            2.60100015e+00,  -1.78964727e+00,  -8.11352878e-01,
            3.31455693e+00,  -2.10926350e+00,   3.01323357e-01,
            4.26135579e+00,   1.82667578e+01,   1.65727847e+01,
           -8.52271158e+00,   5.00996158e+00,   1.16907416e+01]]), 'FE1_C0_D01': array([[ -2.84278478e+00,   2.60133169e+00,  -6.32753871e-01,
            1.85982644e+00,  -6.35415018e-01,   1.61571221e+00,
            2.32942688e+00,  -3.32302980e+00,  -5.80496553e+00,
            1.67566248e+01,   2.82503376e+01,  -1.03125950e+01,
           -5.56045205e+00,   1.71175227e+01,  -9.82958338e+00],
         [ -1.79074769e+00,   5.75744296e+00,  -1.01010877e+01,
            4.75292844e+00,  -1.16818045e+01,   7.13890693e+00,
           -2.16896924e-02,   1.04074179e-01,  -2.65803925e-01,
           -1.68318934e+01,   9.17612187e-01,  -2.59334825e+01,
            1.67566248e+01,   3.45115998e+00,   2.96218075e+01],
         [ -7.30727159e-01,   3.69744599e-01,  -1.15078898e+00,
            1.38159747e+00,  -1.67148523e+00,   4.99918662e-01,
           -1.15622750e+01,   6.68728943e+00,  -1.92358290e+00,
            1.49533198e+01,  -3.09705674e+01,  -1.94780023e+01,
            3.68187850e+00,   6.76404271e+00,   6.50870313e+00],
         [  5.65452740e-01,  -6.71420571e-01,   2.08901868e+00,
           -1.60411004e+00,   2.74873518e+00,  -1.05036138e+00,
            1.90640810e+00,  -3.06199419e-01,   7.48063317e-01,
           -1.03300142e+00,   1.51714233e+01,   2.99298875e+01,
           -5.87553297e+00,  -4.86317762e+00,  -1.03865730e+01],
         [  7.93731867e-01,   1.34168093e-02,   3.45065372e-02,
           -9.76342444e-01,   3.51804343e-01,   1.48104039e-01,
           -2.56551891e+00,  -1.54344175e+00,  -2.01177025e+00,
            1.96926018e+01,   9.24055761e+00,  -1.30772892e+01,
           -1.03300142e+00,  -7.82861047e+00,  -1.82610576e+00],
         [ -9.57138496e-01,  -2.14608846e+00,  -4.27037407e-03,
            2.74910419e+00,  -1.43784293e+00,  -1.78769532e+00,
            3.34906347e+00,  -2.09584669e+00,   1.09505522e+00,
           -1.54312460e+01,   2.32121431e+00,   1.80366977e+01,
            1.01368888e+01,   1.86226538e+01,   1.79196570e+01]]), 'FE1_C0_D10': array([[ -1.46118731e+00,   9.29846468e-01,  -1.32835210e-01,
            1.12909928e+00,  -2.65670419e-01,   4.64923234e-01,
            4.25300978e+00,  -1.00103192e+01,   5.75730946e+00,
           -1.87857355e+00,   4.04381286e+00,   2.65670419e+00,
           -1.87857355e+00,   1.03534800e+01,  -3.32088024e+00],
         [  2.96218075e+00,  -5.92436150e+00,  -2.96218075e+00,
            2.96218075e+00,  -5.92436150e+00,  -2.96218075e+00,
            2.44114232e-01,  -2.35718934e-15,  -2.44114232e-01,
           -1.67566248e+01,   5.28638436e+00,  -2.96218075e+01,
            3.35132495e+01,   1.49063230e-13,   5.92436150e+01],
         [  1.12909928e+00,  -2.65670419e-01,   4.64923234e-01,
           -1.46118731e+00,   9.29846468e-01,  -1.32835210e-01,
           -5.75730946e+00,   1.00103192e+01,  -4.25300978e+00,
            3.75714710e+00,   1.43972928e+01,   6.64176049e-01,
           -1.87857355e+00,  -1.03534800e+01,  -3.32088024e+00],
         [  3.31455693e+00,  -2.10926350e+00,   3.01323357e-01,
           -2.56124854e+00,   6.02646715e-01,  -1.05463175e+00,
            8.11352878e-01,   1.78964727e+00,  -2.60100015e+00,
            4.26135579e+00,   3.61152914e+01,  -6.02646715e+00,
            4.26135579e+00,  -2.34858314e+01,   7.53308394e+00],
         [ -1.82610576e-01,   3.65221153e-01,   1.82610576e-01,
           -1.82610576e-01,   3.65221153e-01,   1.82610576e-01,
           -5.53748666e-01,  -1.68395402e-15,   5.53748666e-01,
            1.03300142e+00,   1.06525048e+01,   1.82610576e+00,
           -2.06600283e+00,   4.52552487e-16,  -3.65221153e+00],
         [ -2.56124854e+00,   6.02646715e-01,  -1.05463175e+00,
            3.31455693e+00,  -2.10926350e+00,   3.01323357e-01,
            2.60100015e+00,  -1.78964727e+00,  -8.11352878e-01,
           -8.52271158e+00,   1.26294600e+01,  -1.50661679e+00,
            4.26135579e+00,   2.34858314e+01,   7.53308394e+00]]), 'FE0_C1': array([[ 0.        ,  0.        ,  0.        ,  0.09157621,  0.81684757,
           0.09157621],
         [ 0.        ,  0.        ,  0.        ,  0.09157621,  0.09157621,
           0.81684757],
         [ 0.        ,  0.        ,  0.        ,  0.81684757,  0.09157621,
           0.09157621],
         [ 0.        ,  0.        ,  0.        ,  0.44594849,  0.10810302,
           0.44594849],
         [ 0.        ,  0.        ,  0.        ,  0.44594849,  0.44594849,
           0.10810302],
         [ 0.        ,  0.        ,  0.        ,  0.10810302,  0.44594849,
           0.44594849]]), 'FE0_C0': array([[ 0.09157621,  0.81684757,  0.09157621,  0.        ,  0.        ,
           0.        ],
         [ 0.09157621,  0.09157621,  0.81684757,  0.        ,  0.        ,
           0.        ],
         [ 0.81684757,  0.09157621,  0.09157621,  0.        ,  0.        ,
           0.        ],
         [ 0.44594849,  0.10810302,  0.44594849,  0.        ,  0.        ,
           0.        ],
         [ 0.44594849,  0.44594849,  0.10810302,  0.        ,  0.        ,
           0.        ],
         [ 0.10810302,  0.44594849,  0.44594849,  0.        ,  0.        ,
           0.        ]])}
  
  name_map: {}
  
  inv_name_map: {'FE0_C1_D01': 'FE0_C1_D01', 'FE1_C0': 'FE1_C0', 'FE1_C1': 'FE1_C1', 'FE0_C1_D10': 'FE0_C1_D10', 'FE1_C1_D10': 'FE1_C1_D10', 'FE0_C0_D10': 'FE0_C0_D10', 'FE0_C0_D01': 'FE0_C0_D01', 'FE1_C1_D01': 'FE1_C1_D01', 'FE1_C0_D01': 'FE1_C0_D01', 'FE1_C0_D10': 'FE1_C0_D10', 'FE0_C1': 'FE0_C1', 'FE0_C0': 'FE0_C0'}
  
  QG-utils, psi_tables, unique_tables:
  {'FE1_C0': array([[ -2.25727001e-01,   3.32587646e-01,  -1.26094480e-01,
            1.05300034e-01,  -9.17337129e-02,   2.46521447e-01,
            2.87382344e-01,  -9.29480352e-01,   8.32895081e-01,
            2.23437001e+00,   2.89591927e+00,  -1.87746726e+00,
           -6.81237797e-01,   8.95564343e-01,  -1.20426966e+00],
         [ -1.61287863e-01,   5.96892706e-01,  -6.07168080e-01,
            1.61287863e-01,  -5.96892706e-01,   6.07168080e-01,
            3.51821481e-01,  -1.83467426e-01,   3.51821481e-01,
            8.71894414e-01,   1.77974702e-01,   6.20210589e+00,
            1.77268277e-14,  -3.55949404e-01,   3.32963584e-14],
         [ -1.05300034e-01,   9.17337129e-02,  -2.46521447e-01,
            2.25727001e-01,  -3.32587646e-01,   1.26094480e-01,
            8.32895081e-01,  -9.29480352e-01,   2.87382344e-01,
            1.55313221e+00,  -3.79148362e+00,  -3.08173692e+00,
            6.81237797e-01,   8.95564343e-01,   1.20426966e+00],
         [  1.56610831e-02,  -1.75812247e-01,   3.72616214e-01,
           -1.42911998e-01,   4.30314077e-01,  -2.45365299e-01,
           -4.56367854e-01,   7.23426869e-02,   1.20056157e-01,
            4.17598615e+00,  -4.21971734e+00,   1.79130134e+00,
           -7.19839880e-01,   2.05337899e-01,  -1.27250915e+00],
         [  8.37516399e-02,   1.03469560e-01,  -1.35717240e-01,
           -8.37516399e-02,  -1.03469560e-01,   1.35717240e-01,
           -3.88277298e-01,   8.60628155e-01,  -3.88277298e-01,
            2.73630639e+00,   5.58546202e-01,  -2.92186826e+00,
            0.00000000e+00,  -1.11709240e+00,   0.00000000e+00],
         [  1.42911998e-01,  -4.30314077e-01,   2.45365299e-01,
           -1.56610831e-02,   1.75812247e-01,  -3.72616214e-01,
            1.20056157e-01,   7.23426869e-02,  -4.56367854e-01,
            3.45614627e+00,   4.01437944e+00,   5.18792192e-01,
            7.19839880e-01,   2.05337899e-01,   1.27250915e+00]]), 'FE1_C1': array([[  6.07168080e-01,  -5.96892706e-01,   1.61287863e-01,
            3.51821481e-01,  -1.83467426e-01,   3.51821481e-01,
            1.61287863e-01,  -5.96892706e-01,   6.07168080e-01,
            1.36991113e-14,  -1.77974702e-01,  -3.08261226e-01,
            8.71894414e-01,   5.46016861e+00,  -2.94692233e+00],
         [  1.26094480e-01,  -3.32587646e-01,   2.25727001e-01,
            2.87382344e-01,  -9.29480352e-01,   8.32895081e-01,
            1.05300034e-01,  -9.17337129e-02,   2.46521447e-01,
           -6.81237797e-01,  -5.95145951e-01,   1.37771630e+00,
            2.23437001e+00,  -1.77974702e-01,   3.44667329e+00],
         [  2.46521447e-01,  -9.17337129e-02,   1.05300034e-01,
            8.32895081e-01,  -9.29480352e-01,   2.87382344e-01,
            2.25727001e-01,  -3.32587646e-01,   1.26094480e-01,
            6.81237797e-01,   1.49071029e+00,   1.73446640e-01,
            1.55313221e+00,  -4.56460427e+00,  -1.74265267e+00],
         [  1.35717240e-01,  -1.03469560e-01,  -8.37516399e-02,
           -3.88277298e-01,   8.60628155e-01,  -3.88277298e-01,
           -8.37516399e-02,  -1.03469560e-01,   1.35717240e-01,
            0.00000000e+00,  -5.58546202e-01,  -9.67430400e-01,
            2.73630639e+00,  -2.25113904e+00,   1.94464933e+00],
         [ -3.72616214e-01,   1.75812247e-01,  -1.56610831e-02,
           -4.56367854e-01,   7.23426869e-02,   1.20056157e-01,
           -1.42911998e-01,   4.30314077e-01,  -2.45365299e-01,
           -7.19839880e-01,  -9.99356303e-01,   8.14082413e-01,
            4.17598615e+00,  -5.58546202e-01,  -4.55003309e+00],
         [ -2.45365299e-01,   4.30314077e-01,  -1.42911998e-01,
            1.20056157e-01,   7.23426869e-02,  -4.56367854e-01,
           -1.56610831e-02,   1.75812247e-01,  -3.72616214e-01,
            7.19839880e-01,   1.20469420e+00,  -4.58426739e-01,
            3.45614627e+00,   2.45647694e+00,   3.21715848e+00]]), 'FE1_C1_D10': array([[  1.01010877e+01,  -5.75744296e+00,   1.79074769e+00,
           -2.16896924e-02,   1.04074179e-01,  -2.65803925e-01,
            4.75292844e+00,  -1.16818045e+01,   7.13890693e+00,
            1.67566248e+01,   2.73788178e+01,  -1.18221115e+01,
           -1.68318934e+01,  -2.20002486e+01,   1.37614167e+01],
         [  6.32753871e-01,  -2.60133169e+00,   2.84278478e+00,
            2.32942688e+00,  -3.32302980e+00,  -5.80496553e+00,
            1.85982644e+00,  -6.35415018e-01,   1.61571221e+00,
           -5.56045205e+00,   4.60924187e-02,   1.97390012e+01,
            1.67566248e+01,   5.19419952e+00,   2.96218075e+01],
         [  1.15078898e+00,  -3.69744599e-01,   7.30727159e-01,
           -1.15622750e+01,   6.68728943e+00,  -1.92358290e+00,
            1.38159747e+00,  -1.67148523e+00,   4.99918662e-01,
            3.68187850e+00,   9.01872362e+00,   2.60348125e+00,
            1.49533198e+01,  -3.23537285e+01,  -1.70822970e+01],
         [ -3.45065372e-02,  -1.34168093e-02,  -7.93731867e-01,
           -2.56551891e+00,  -1.54344175e+00,  -2.01177025e+00,
           -9.76342444e-01,   3.51804343e-01,   1.48104039e-01,
           -1.03300142e+00,  -5.49575922e+00,  -5.86672266e+00,
            1.96926018e+01,  -6.70498584e+00,   1.45412022e+01],
         [ -2.08901868e+00,   6.71420571e-01,  -5.65452740e-01,
            1.90640810e+00,  -3.06199419e-01,   7.48063317e-01,
           -1.60411004e+00,   2.74873518e+00,  -1.05036138e+00,
           -5.87553297e+00,  -1.14266249e+01,   9.81651146e-01,
           -1.03300142e+00,   3.35057546e+01,  -1.82610576e+00],
         [  4.27037407e-03,   2.14608846e+00,   9.57138496e-01,
            3.34906347e+00,  -2.09584669e+00,   1.09505522e+00,
            2.74910419e+00,  -1.43784293e+00,  -1.78769532e+00,
            1.01368888e+01,   2.48302050e+01,   7.16786278e+00,
           -1.54312460e+01,   1.67808456e+01,  -7.00811830e+00]]), 'FE0_C0_D01': array([[-1.,  1.],
         [-1.,  1.],
         [-1.,  1.],
         [-1.,  1.],
         [-1.,  1.],
         [-1.,  1.]]), 'FE1_C1_D01': array([[  2.96218075e+00,   5.92436150e+00,  -2.96218075e+00,
            2.44114232e-01,   1.08801856e-14,  -2.44114232e-01,
            2.96218075e+00,  -5.92436150e+00,  -2.96218075e+00,
            3.35132495e+01,   5.13064756e+01,  -2.96218075e+01,
           -1.67566248e+01,  -2.30100456e+01,   1.93890469e+01],
         [  1.32835210e-01,  -9.29846468e-01,   1.46118731e+00,
            4.25300978e+00,  -1.00103192e+01,   5.75730946e+00,
            1.12909928e+00,  -2.65670419e-01,   4.64923234e-01,
           -1.87857355e+00,   2.30077332e+00,   1.06268168e+01,
           -1.87857355e+00,   4.32267975e+00,   2.17369257e+00],
         [ -4.64923234e-01,   2.65670419e-01,  -1.12909928e+00,
           -5.75730946e+00,   1.00103192e+01,  -4.25300978e+00,
           -1.46118731e+00,   9.29846468e-01,  -1.32835210e-01,
           -1.87857355e+00,  -8.05270663e+00,  -7.30593654e+00,
            3.75714710e+00,   7.77383974e+00,   1.21363333e+01],
         [ -1.82610576e-01,  -3.65221153e-01,   1.82610576e-01,
           -5.53748666e-01,   2.45359288e-14,   5.53748666e-01,
           -1.82610576e-01,   3.65221153e-01,   1.82610576e-01,
           -2.06600283e+00,  -3.16290796e+00,   1.82610576e+00,
            1.03300142e+00,   6.90770636e+00,   8.31228685e+00],
         [ -3.01323357e-01,   2.10926350e+00,  -3.31455693e+00,
            8.11352878e-01,   1.78964727e+00,  -2.60100015e+00,
           -2.56124854e+00,   6.02646715e-01,  -1.05463175e+00,
            4.26135579e+00,  -5.21907365e+00,  -2.41058686e+01,
            4.26135579e+00,   1.28385721e+01,   3.42899934e+01],
         [  1.05463175e+00,  -6.02646715e-01,   2.56124854e+00,
            2.60100015e+00,  -1.78964727e+00,  -8.11352878e-01,
            3.31455693e+00,  -2.10926350e+00,   3.01323357e-01,
            4.26135579e+00,   1.82667578e+01,   1.65727847e+01,
           -8.52271158e+00,   5.00996158e+00,   1.16907416e+01]]), 'FE1_C0_D01': array([[ -2.84278478e+00,   2.60133169e+00,  -6.32753871e-01,
            1.85982644e+00,  -6.35415018e-01,   1.61571221e+00,
            2.32942688e+00,  -3.32302980e+00,  -5.80496553e+00,
            1.67566248e+01,   2.82503376e+01,  -1.03125950e+01,
           -5.56045205e+00,   1.71175227e+01,  -9.82958338e+00],
         [ -1.79074769e+00,   5.75744296e+00,  -1.01010877e+01,
            4.75292844e+00,  -1.16818045e+01,   7.13890693e+00,
           -2.16896924e-02,   1.04074179e-01,  -2.65803925e-01,
           -1.68318934e+01,   9.17612187e-01,  -2.59334825e+01,
            1.67566248e+01,   3.45115998e+00,   2.96218075e+01],
         [ -7.30727159e-01,   3.69744599e-01,  -1.15078898e+00,
            1.38159747e+00,  -1.67148523e+00,   4.99918662e-01,
           -1.15622750e+01,   6.68728943e+00,  -1.92358290e+00,
            1.49533198e+01,  -3.09705674e+01,  -1.94780023e+01,
            3.68187850e+00,   6.76404271e+00,   6.50870313e+00],
         [  5.65452740e-01,  -6.71420571e-01,   2.08901868e+00,
           -1.60411004e+00,   2.74873518e+00,  -1.05036138e+00,
            1.90640810e+00,  -3.06199419e-01,   7.48063317e-01,
           -1.03300142e+00,   1.51714233e+01,   2.99298875e+01,
           -5.87553297e+00,  -4.86317762e+00,  -1.03865730e+01],
         [  7.93731867e-01,   1.34168093e-02,   3.45065372e-02,
           -9.76342444e-01,   3.51804343e-01,   1.48104039e-01,
           -2.56551891e+00,  -1.54344175e+00,  -2.01177025e+00,
            1.96926018e+01,   9.24055761e+00,  -1.30772892e+01,
           -1.03300142e+00,  -7.82861047e+00,  -1.82610576e+00],
         [ -9.57138496e-01,  -2.14608846e+00,  -4.27037407e-03,
            2.74910419e+00,  -1.43784293e+00,  -1.78769532e+00,
            3.34906347e+00,  -2.09584669e+00,   1.09505522e+00,
           -1.54312460e+01,   2.32121431e+00,   1.80366977e+01,
            1.01368888e+01,   1.86226538e+01,   1.79196570e+01]]), 'FE1_C0_D10': array([[ -1.46118731e+00,   9.29846468e-01,  -1.32835210e-01,
            1.12909928e+00,  -2.65670419e-01,   4.64923234e-01,
            4.25300978e+00,  -1.00103192e+01,   5.75730946e+00,
           -1.87857355e+00,   4.04381286e+00,   2.65670419e+00,
           -1.87857355e+00,   1.03534800e+01,  -3.32088024e+00],
         [  2.96218075e+00,  -5.92436150e+00,  -2.96218075e+00,
            2.96218075e+00,  -5.92436150e+00,  -2.96218075e+00,
            2.44114232e-01,   0.00000000e+00,  -2.44114232e-01,
           -1.67566248e+01,   5.28638436e+00,  -2.96218075e+01,
            3.35132495e+01,   1.49063230e-13,   5.92436150e+01],
         [  1.12909928e+00,  -2.65670419e-01,   4.64923234e-01,
           -1.46118731e+00,   9.29846468e-01,  -1.32835210e-01,
           -5.75730946e+00,   1.00103192e+01,  -4.25300978e+00,
            3.75714710e+00,   1.43972928e+01,   6.64176049e-01,
           -1.87857355e+00,  -1.03534800e+01,  -3.32088024e+00],
         [  3.31455693e+00,  -2.10926350e+00,   3.01323357e-01,
           -2.56124854e+00,   6.02646715e-01,  -1.05463175e+00,
            8.11352878e-01,   1.78964727e+00,  -2.60100015e+00,
            4.26135579e+00,   3.61152914e+01,  -6.02646715e+00,
            4.26135579e+00,  -2.34858314e+01,   7.53308394e+00],
         [ -1.82610576e-01,   3.65221153e-01,   1.82610576e-01,
           -1.82610576e-01,   3.65221153e-01,   1.82610576e-01,
           -5.53748666e-01,   0.00000000e+00,   5.53748666e-01,
            1.03300142e+00,   1.06525048e+01,   1.82610576e+00,
           -2.06600283e+00,   0.00000000e+00,  -3.65221153e+00],
         [ -2.56124854e+00,   6.02646715e-01,  -1.05463175e+00,
            3.31455693e+00,  -2.10926350e+00,   3.01323357e-01,
            2.60100015e+00,  -1.78964727e+00,  -8.11352878e-01,
           -8.52271158e+00,   1.26294600e+01,  -1.50661679e+00,
            4.26135579e+00,   2.34858314e+01,   7.53308394e+00]]), 'FE0_C0': array([[ 0.09157621,  0.81684757,  0.09157621],
         [ 0.09157621,  0.09157621,  0.81684757],
         [ 0.81684757,  0.09157621,  0.09157621],
         [ 0.44594849,  0.10810302,  0.44594849],
         [ 0.44594849,  0.44594849,  0.10810302],
         [ 0.10810302,  0.44594849,  0.44594849]])}
  
  QG-utils, psi_tables, name_map:
  {'FE0_C1_D01': ('FE0_C0_D01', (4, [3, 5]), False, False), 'FE1_C0': ('FE1_C0', (), False, False), 'FE1_C1': ('FE1_C1', (), False, False), 'FE0_C1_D10': ('FE0_C0_D01', (5, [3, 4]), False, False), 'FE1_C1_D10': ('FE1_C1_D10', (), False, False), 'FE0_C0_D10': ('FE0_C0_D01', (2, [0, 1]), False, False), 'FE0_C0_D01': ('FE0_C0_D01', (1, [0, 2]), False, False), 'FE1_C1_D01': ('FE1_C1_D01', (), False, False), 'FE1_C0_D01': ('FE1_C0_D01', (), False, False), 'FE1_C0_D10': ('FE1_C0_D10', (), False, False), 'FE0_C1': ('FE0_C0', (3, [3, 4, 5]), False, False), 'FE0_C0': ('FE0_C0', (0, [0, 1, 2]), False, False)}
  Transforming cell integral
  Reusing element from cache
  Reusing element from cache
  Reusing element from cache
  Reusing element from cache
  Reusing element from cache
  Reusing element from cache
  Reusing element from cache
  Reusing element from cache
  Reusing element from cache
  Reusing element from cache
  Computing tensor representation
  Extracting monomial form representation from UFL form
  Transforming monomial form to reference element
  Reusing element from cache
  Reusing element from cache
  Reusing element from cache
  Reusing element from cache
  Reusing element from cache
  Reusing element from cache
  Precomputing integrals on reference element
  Reusing element from cache
  900 entries computed in 0.000955 seconds
  Shape of reference tensor: (15, 15, 2, 2)
  Primary multi index:   rank = 2 dims = [15, 15] indices = [[0, 0], [0, 1], [0, 2], [0, 3], [0, 4], [0, 5], [0, 6], [0, 7], [0, 8], [0, 9], [0, 10], [0, 11], [0, 12], [0, 13], [0, 14], [1, 0], [1, 1], [1, 2], [1, 3], [1, 4], [1, 5], [1, 6], [1, 7], [1, 8], [1, 9], [1, 10], [1, 11], [1, 12], [1, 13], [1, 14], [2, 0], [2, 1], [2, 2], [2, 3], [2, 4], [2, 5], [2, 6], [2, 7], [2, 8], [2, 9], [2, 10], [2, 11], [2, 12], [2, 13], [2, 14], [3, 0], [3, 1], [3, 2], [3, 3], [3, 4], [3, 5], [3, 6], [3, 7], [3, 8], [3, 9], [3, 10], [3, 11], [3, 12], [3, 13], [3, 14], [4, 0], [4, 1], [4, 2], [4, 3], [4, 4], [4, 5], [4, 6], [4, 7], [4, 8], [4, 9], [4, 10], [4, 11], [4, 12], [4, 13], [4, 14], [5, 0], [5, 1], [5, 2], [5, 3], [5, 4], [5, 5], [5, 6], [5, 7], [5, 8], [5, 9], [5, 10], [5, 11], [5, 12], [5, 13], [5, 14], [6, 0], [6, 1], [6, 2], [6, 3], [6, 4], [6, 5], [6, 6], [6, 7], [6, 8], [6, 9], [6, 10], [6, 11], [6, 12], [6, 13], [6, 14], [7, 0], [7, 1], [7, 2], [7, 3], [7, 4], [7, 5], [7, 6], [7, 7], [7, 8], [7, 9], [7, 10], [7, 11], [7, 12], [7, 13], [7, 14], [8, 0], [8, 1], [8, 2], [8, 3], [8, 4], [8, 5], [8, 6], [8, 7], [8, 8], [8, 9], [8, 10], [8, 11], [8, 12], [8, 13], [8, 14], [9, 0], [9, 1], [9, 2], [9, 3], [9, 4], [9, 5], [9, 6], [9, 7], [9, 8], [9, 9], [9, 10], [9, 11], [9, 12], [9, 13], [9, 14], [10, 0], [10, 1], [10, 2], [10, 3], [10, 4], [10, 5], [10, 6], [10, 7], [10, 8], [10, 9], [10, 10], [10, 11], [10, 12], [10, 13], [10, 14], [11, 0], [11, 1], [11, 2], [11, 3], [11, 4], [11, 5], [11, 6], [11, 7], [11, 8], [11, 9], [11, 10], [11, 11], [11, 12], [11, 13], [11, 14], [12, 0], [12, 1], [12, 2], [12, 3], [12, 4], [12, 5], [12, 6], [12, 7], [12, 8], [12, 9], [12, 10], [12, 11], [12, 12], [12, 13], [12, 14], [13, 0], [13, 1], [13, 2], [13, 3], [13, 4], [13, 5], [13, 6], [13, 7], [13, 8], [13, 9], [13, 10], [13, 11], [13, 12], [13, 13], [13, 14], [14, 0], [14, 1], [14, 2], [14, 3], [14, 4], [14, 5], [14, 6], [14, 7], [14, 8], [14, 9], [14, 10], [14, 11], [14, 12], [14, 13], [14, 14]]
  Secondary multi index: rank = 2 dims = [2, 2] indices = [[0, 0], [0, 1], [1, 0], [1, 1]]
  Internal multi index:  rank = 0 dims = [] indices = [[]]
  Secondary multi index: rank = 2 dims = [2, 2] indices = [[0, 0], [0, 1], [1, 0], [1, 1]]
  External multi index:  rank = 1 dims = [2] indices = [[0], [1]]
  Reusing element from cache
  Computing representation of forms
  
Compiler stage 2 finished in 0.0863168 seconds.

Compiler stage 3: Optimizing intermediate representation
--------------------------------------------------------
  Optimising expressions for cell integral
  
Compiler stage 3 finished in 0.00286603 seconds.

Compiler stage 4: Generating code
---------------------------------
  Generating code for 1 element(s)
  Removing unused variable: tmp7
  Removing unused variable: tmp6
  Removing unused variable: tmp5
  Removing unused variable: tt
  Removing unused variable: ss
  Removing unused variable: rr
  Removing unused variable: tmp7
  Removing unused variable: tmp6
  Removing unused variable: tmp5
  Removing unused variable: tt
  Removing unused variable: ss
  Removing unused variable: rr
  Removing unused variable: tmp7
  Removing unused variable: tmp6
  Removing unused variable: tmp5
  Removing unused variable: tt
  Removing unused variable: ss
  Removing unused variable: rr
  Removing unused variable: tmp7
  Removing unused variable: tmp6
  Removing unused variable: tmp5
  Removing unused variable: tt
  Removing unused variable: ss
  Removing unused variable: rr
  Removing unused variable: tmp7
  Removing unused variable: tmp6
  Removing unused variable: tmp5
  Removing unused variable: tt
  Removing unused variable: ss
  Removing unused variable: rr
  Removing unused variable: tmp7
  Removing unused variable: tmp6
  Removing unused variable: tmp5
  Removing unused variable: tt
  Removing unused variable: ss
  Removing unused variable: rr
  Removing unused variable: tmp7
  Removing unused variable: tmp6
  Removing unused variable: tmp5
  Removing unused variable: tt
  Removing unused variable: ss
  Removing unused variable: rr
  Removing unused variable: tmp7
  Removing unused variable: tmp6
  Removing unused variable: tmp5
  Removing unused variable: tt
  Removing unused variable: ss
  Removing unused variable: rr
  Removing unused variable: tmp7
  Removing unused variable: tmp6
  Removing unused variable: tmp5
  Removing unused variable: tt
  Removing unused variable: ss
  Removing unused variable: rr
  Removing unused variable: tmp7
  Removing unused variable: tmp6
  Removing unused variable: tmp5
  Removing unused variable: tt
  Removing unused variable: ss
  Removing unused variable: rr
  Removing unused variable: tmp7
  Removing unused variable: tmp6
  Removing unused variable: tmp5
  Removing unused variable: tt
  Removing unused variable: ss
  Removing unused variable: rr
  Removing unused variable: tmp7
  Removing unused variable: tmp6
  Removing unused variable: tmp5
  Removing unused variable: tt
  Removing unused variable: ss
  Removing unused variable: rr
  Removing unused variable: tmp7
  Removing unused variable: tmp6
  Removing unused variable: tmp5
  Removing unused variable: tt
  Removing unused variable: ss
  Removing unused variable: rr
  Removing unused variable: tmp7
  Removing unused variable: tmp6
  Removing unused variable: tmp5
  Removing unused variable: tt
  Removing unused variable: ss
  Removing unused variable: rr
  Removing unused variable: tmp7
  Removing unused variable: tmp6
  Removing unused variable: tmp5
  Removing unused variable: tt
  Removing unused variable: ss
  Removing unused variable: rr
  Removing unused variable: tmp7
  Removing unused variable: tmp6
  Removing unused variable: tmp5
  Removing unused variable: tt
  Removing unused variable: ss
  Removing unused variable: rr
  Removing unused variable: tmp7
  Removing unused variable: tmp6
  Removing unused variable: tmp5
  Removing unused variable: tt
  Removing unused variable: ss
  Removing unused variable: rr
  Removing unused variable: tmp7
  Removing unused variable: tmp6
  Removing unused variable: tmp5
  Removing unused variable: tt
  Removing unused variable: ss
  Removing unused variable: rr
  Removing unused variable: tmp7
  Removing unused variable: tmp6
  Removing unused variable: tmp5
  Removing unused variable: tt
  Removing unused variable: ss
  Removing unused variable: rr
  Removing unused variable: tmp7
  Removing unused variable: tmp6
  Removing unused variable: tmp5
  Removing unused variable: tt
  Removing unused variable: ss
  Removing unused variable: rr
  Removing unused variable: tmp7
  Removing unused variable: tmp6
  Removing unused variable: tmp5
  Removing unused variable: tt
  Removing unused variable: ss
  Removing unused variable: rr
  Removing unused variable: tmp7
  Removing unused variable: tmp6
  Removing unused variable: tmp5
  Removing unused variable: tt
  Removing unused variable: ss
  Removing unused variable: rr
  Removing unused variable: tmp7
  Removing unused variable: tmp6
  Removing unused variable: tmp5
  Removing unused variable: tt
  Removing unused variable: ss
  Removing unused variable: rr
  Removing unused variable: tmp7
  Removing unused variable: tmp6
  Removing unused variable: tmp5
  Removing unused variable: tt
  Removing unused variable: ss
  Removing unused variable: rr
  Removing unused variable: tmp7
  Removing unused variable: tmp6
  Removing unused variable: tmp5
  Removing unused variable: tt
  Removing unused variable: ss
  Removing unused variable: rr
  Removing unused variable: tmp7
  Removing unused variable: tmp6
  Removing unused variable: tmp5
  Removing unused variable: tt
  Removing unused variable: ss
  Removing unused variable: rr
  Removing unused variable: tmp7
  Removing unused variable: tmp6
  Removing unused variable: tmp5
  Removing unused variable: tt
  Removing unused variable: ss
  Removing unused variable: rr
  Removing unused variable: tmp7
  Removing unused variable: tmp6
  Removing unused variable: tmp5
  Removing unused variable: tt
  Removing unused variable: ss
  Removing unused variable: rr
  Removing unused variable: tmp7
  Removing unused variable: tmp6
  Removing unused variable: tmp5
  Removing unused variable: tt
  Removing unused variable: ss
  Removing unused variable: rr
  Removing unused variable: tmp7
  Removing unused variable: tmp6
  Removing unused variable: tmp5
  Removing unused variable: tt
  Removing unused variable: ss
  Removing unused variable: rr
  Generating code for 1 dofmap(s)
  Generating code for integrals
  Removing unused variable: circumradius
  Removing unused variable: v0v1
  Removing unused variable: v0v2
  Removing unused variable: v1v2
  Removing unused variable: volume
  Generating code for forms
  
Compiler stage 4 finished in 0.262942 seconds.

Compiler stage 4.1: Generating additional wrapper code
------------------------------------------------------
  Generating wrapper code for DOLFIN
  
Compiler stage 4.1 finished in 0.000401974 seconds.

Compiler stage 5: Formatting code
---------------------------------
  
Output written to ./Forms.h.
Compiler stage 5 finished in 0.000696182 seconds.

[1;37;32mFFC finished in 0.617633 seconds.[0m
